wave.vcd
$version Generated by VerilatedVcd $end
$timescale 1ps $end
 $scope module TOP $end
  $scope module $unit $end
   $var wire 32 F' VLEN [31:0] $end
  $upscope $end
  $var wire 1 Q& clk $end
  $var wire 1 R& rst $end
  $var wire 1 S& alu_rst $end
  $var wire 32 T& instr [31:0] $end
  $var wire 32 U& vl [31:0] $end
  $var wire 512 V& vreg_out [511:0] $end
  $var wire 1 f& ready $end
  $scope module rvv_vector_system $end
   $var wire 1 Q& clk $end
   $var wire 1 R& rst $end
   $var wire 1 S& alu_rst $end
   $var wire 32 T& instr [31:0] $end
   $var wire 32 U& vl [31:0] $end
   $var wire 512 V& vreg_out [511:0] $end
   $var wire 1 f& ready $end
   $var wire 2 6 valu_mode [1:0] $end
   $var wire 9 7 vtype [8:0] $end
   $var wire 7 8 opcode [6:0] $end
   $var wire 5 9 vd [4:0] $end
   $var wire 5 : vs1 [4:0] $end
   $var wire 5 ; vs2 [4:0] $end
   $var wire 5 < vs3 [4:0] $end
   $var wire 5 = imm5 [4:0] $end
   $var wire 1 > vm $end
   $var wire 1 ? mem_load $end
   $var wire 1 @ mem_store $end
   $var wire 512 A vreg_rs1 [511:0] $end
   $var wire 512 Q vreg_rs2 [511:0] $end
   $var wire 512 a vreg_rs3 [511:0] $end
   $var wire 1 g& vregfile_we $end
   $var wire 512 V& vregfile_wdata [511:0] $end
   $scope module decoder $end
    $var wire 1 Q& clk $end
    $var wire 1 R& rst $end
    $var wire 32 T& instr [31:0] $end
    $var wire 32 U& vl [31:0] $end
    $var wire 2 6 valu_mode [1:0] $end
    $var wire 9 7 vtype [8:0] $end
    $var wire 7 8 opcode [6:0] $end
    $var wire 5 9 vd [4:0] $end
    $var wire 5 : vs1 [4:0] $end
    $var wire 5 ; vs2 [4:0] $end
    $var wire 5 < vs3 [4:0] $end
    $var wire 5 = imm5 [4:0] $end
    $var wire 1 > vm $end
    $var wire 1 ? mem_load $end
    $var wire 1 @ mem_store $end
    $var wire 32 h& VLEN [31:0] $end
    $var wire 9 q vtype_reg [8:0] $end
    $var wire 1 3 is_vsetvli $end
    $var wire 1 4 is_vsetvl $end
    $scope module unnamedblk1 $end
     $var wire 9 r new_vtype [8:0] $end
    $upscope $end
   $upscope $end
   $scope module vector_core $end
    $var wire 32 h& VLEN [31:0] $end
    $var wire 32 i& ELEN [31:0] $end
    $var wire 32 j& MEM_SIZE_BYTES [31:0] $end
    $var wire 1 Q& clk $end
    $var wire 1 5 rst $end
    $var wire 2 6 valu_mode [1:0] $end
    $var wire 9 7 vtype [8:0] $end
    $var wire 32 U& vl [31:0] $end
    $var wire 7 8 opcode [6:0] $end
    $var wire 512 A vs1 [511:0] $end
    $var wire 512 Q vs2 [511:0] $end
    $var wire 512 a vs3 [511:0] $end
    $var wire 64 k& rs1 [63:0] $end
    $var wire 5 = imm [4:0] $end
    $var wire 512 m& vmask [511:0] $end
    $var wire 1 > vm $end
    $var wire 1 ? mem_load $end
    $var wire 1 @ mem_store $end
    $var wire 512 V& vreg_out [511:0] $end
    $var wire 1 f& ready $end
    $var wire 32 }& MEM_WORDS [31:0] $end
    $var wire 610 ~& mem_req [609:0] $end
    $var wire 1 t mem_ready $end
    $var wire 512 u mem_read_data [511:0] $end
    $var wire 64 # addresses[0] [63:0] $end
    $var wire 64 % addresses[1] [63:0] $end
    $var wire 64 ' addresses[2] [63:0] $end
    $var wire 64 ) addresses[3] [63:0] $end
    $var wire 64 + addresses[4] [63:0] $end
    $var wire 64 - addresses[5] [63:0] $end
    $var wire 64 / addresses[6] [63:0] $end
    $var wire 64 1 addresses[7] [63:0] $end
    $var wire 512 4' alu_result [511:0] $end
    $var wire 1 D' internal_ready $end
    $scope module agu_inst $end
     $var wire 610 ~& req [609:0] $end
     $var wire 64 # addresses[0] [63:0] $end
     $var wire 64 % addresses[1] [63:0] $end
     $var wire 64 ' addresses[2] [63:0] $end
     $var wire 64 ) addresses[3] [63:0] $end
     $var wire 64 + addresses[4] [63:0] $end
     $var wire 64 - addresses[5] [63:0] $end
     $var wire 64 / addresses[6] [63:0] $end
     $var wire 64 1 addresses[7] [63:0] $end
    $upscope $end
   $upscope $end
   $scope module vregfile $end
    $var wire 32 h& VLEN [31:0] $end
    $var wire 32 E' NUM_REGS [31:0] $end
    $var wire 1 Q& clk $end
    $var wire 1 R& rst $end
    $var wire 5 : rs1_addr [4:0] $end
    $var wire 5 ; rs2_addr [4:0] $end
    $var wire 5 < rs3_addr [4:0] $end
    $var wire 512 A rs1_data [511:0] $end
    $var wire 512 Q rs2_data [511:0] $end
    $var wire 512 a rs3_data [511:0] $end
    $var wire 5 9 rd_addr [4:0] $end
    $var wire 512 V& rd_data [511:0] $end
    $var wire 1 g& rd_we $end
    $var wire 512 '! regfile[0] [511:0] $end
    $var wire 512 7! regfile[1] [511:0] $end
    $var wire 512 G! regfile[2] [511:0] $end
    $var wire 512 W! regfile[3] [511:0] $end
    $var wire 512 g! regfile[4] [511:0] $end
    $var wire 512 w! regfile[5] [511:0] $end
    $var wire 512 )" regfile[6] [511:0] $end
    $var wire 512 9" regfile[7] [511:0] $end
    $var wire 512 I" regfile[8] [511:0] $end
    $var wire 512 Y" regfile[9] [511:0] $end
    $var wire 512 i" regfile[10] [511:0] $end
    $var wire 512 y" regfile[11] [511:0] $end
    $var wire 512 +# regfile[12] [511:0] $end
    $var wire 512 ;# regfile[13] [511:0] $end
    $var wire 512 K# regfile[14] [511:0] $end
    $var wire 512 [# regfile[15] [511:0] $end
    $var wire 512 k# regfile[16] [511:0] $end
    $var wire 512 {# regfile[17] [511:0] $end
    $var wire 512 -$ regfile[18] [511:0] $end
    $var wire 512 =$ regfile[19] [511:0] $end
    $var wire 512 M$ regfile[20] [511:0] $end
    $var wire 512 ]$ regfile[21] [511:0] $end
    $var wire 512 m$ regfile[22] [511:0] $end
    $var wire 512 }$ regfile[23] [511:0] $end
    $var wire 512 /% regfile[24] [511:0] $end
    $var wire 512 ?% regfile[25] [511:0] $end
    $var wire 512 O% regfile[26] [511:0] $end
    $var wire 512 _% regfile[27] [511:0] $end
    $var wire 512 o% regfile[28] [511:0] $end
    $var wire 512 !& regfile[29] [511:0] $end
    $var wire 512 1& regfile[30] [511:0] $end
    $var wire 512 A& regfile[31] [511:0] $end
    $scope module unnamedblk1 $end
     $var wire 32 s i [31:0] $end
    $upscope $end
   $upscope $end
  $upscope $end
 $upscope $end
$enddefinitions $end


#0
b0000000000000000000000000000000000000000000000000000000000000000 #
b0000000000000000000000000000000000000000000000000000000000001000 %
b0000000000000000000000000000000000000000000000000000000000010000 '
b0000000000000000000000000000000000000000000000000000000000011000 )
b0000000000000000000000000000000000000000000000000000000000100000 +
b0000000000000000000000000000000000000000000000000000000000101000 -
b0000000000000000000000000000000000000000000000000000000000110000 /
b0000000000000000000000000000000000000000000000000000000000111000 1
03
04
15
b00 6
b000000000 7
b0000000 8
b00000 9
b00000 :
b00000 ;
b00000 <
b00000 =
0>
0?
0@
b00000000000000000000000000000000000000000000000000000000000000000000000000000000000000000000000000000000000000000000000000000000000000000000000000000000000000000000000000000000000000000000000000000000000000000000000000000000000000000000000000000000000000000000000000000000000000000000000000000000000000000000000000000000000000000000000000000000000000000000000000000000000000000000000000000000000000000000000000000000000000000000000000000000000000000000000000000000000000000000000000000000000000000000000000000000 A
b00000000000000000000000000000000000000000000000000000000000000000000000000000000000000000000000000000000000000000000000000000000000000000000000000000000000000000000000000000000000000000000000000000000000000000000000000000000000000000000000000000000000000000000000000000000000000000000000000000000000000000000000000000000000000000000000000000000000000000000000000000000000000000000000000000000000000000000000000000000000000000000000000000000000000000000000000000000000000000000000000000000000000000000000000000000 Q
b00000000000000000000000000000000000000000000000000000000000000000000000000000000000000000000000000000000000000000000000000000000000000000000000000000000000000000000000000000000000000000000000000000000000000000000000000000000000000000000000000000000000000000000000000000000000000000000000000000000000000000000000000000000000000000000000000000000000000000000000000000000000000000000000000000000000000000000000000000000000000000000000000000000000000000000000000000000000000000000000000000000000000000000000000000000 a
b000000000 q
b000000000 r
b00000000000000000000000000000000 s
0t
b00000000000000000000000000000000000000000000000000000000000000000000000000000000000000000000000000000000000000000000000000000000000000000000000000000000000000000000000000000000000000000000000000000000000000000000000000000000000000000000000000000000000000000000000000000000000000000000000000000000000000000000000000000000000000000000000000000000000000000000000000000000000000000000000000000000000000000000000000000000000000000000000000000000000000000000000000000000000000000000000000000000000000000000000000000000 u
b00000000000000000000000000000000000000000000000000000000000000000000000000000000000000000000000000000000000000000000000000000000000000000000000000000000000000000000000000000000000000000000000000000000000000000000000000000000000000000000000000000000000000000000000000000000000000000000000000000000000000000000000000000000000000000000000000000000000000000000000000000000000000000000000000000000000000000000000000000000000000000000000000000000000000000000000000000000000000000000000000000000000000000000000000000000 '!
b00000000000000000000000000000000000000000000000000000000000000000000000000000000000000000000000000000000000000000000000000000000000000000000000000000000000000000000000000000000000000000000000000000000000000000000000000000000000000000000000000000000000000000000000000000000000000000000000000000000000000000000000000000000000000000000000000000000000000000000000000000000000000000000000000000000000000000000000000000000000000000000000000000000000000000000000000000000000000000000000000000000000000000000000000000000 7!
b00000000000000000000000000000000000000000000000000000000000000000000000000000000000000000000000000000000000000000000000000000000000000000000000000000000000000000000000000000000000000000000000000000000000000000000000000000000000000000000000000000000000000000000000000000000000000000000000000000000000000000000000000000000000000000000000000000000000000000000000000000000000000000000000000000000000000000000000000000000000000000000000000000000000000000000000000000000000000000000000000000000000000000000000000000000 G!
b00000000000000000000000000000000000000000000000000000000000000000000000000000000000000000000000000000000000000000000000000000000000000000000000000000000000000000000000000000000000000000000000000000000000000000000000000000000000000000000000000000000000000000000000000000000000000000000000000000000000000000000000000000000000000000000000000000000000000000000000000000000000000000000000000000000000000000000000000000000000000000000000000000000000000000000000000000000000000000000000000000000000000000000000000000000 W!
b00000000000000000000000000000000000000000000000000000000000000000000000000000000000000000000000000000000000000000000000000000000000000000000000000000000000000000000000000000000000000000000000000000000000000000000000000000000000000000000000000000000000000000000000000000000000000000000000000000000000000000000000000000000000000000000000000000000000000000000000000000000000000000000000000000000000000000000000000000000000000000000000000000000000000000000000000000000000000000000000000000000000000000000000000000000 g!
b00000000000000000000000000000000000000000000000000000000000000000000000000000000000000000000000000000000000000000000000000000000000000000000000000000000000000000000000000000000000000000000000000000000000000000000000000000000000000000000000000000000000000000000000000000000000000000000000000000000000000000000000000000000000000000000000000000000000000000000000000000000000000000000000000000000000000000000000000000000000000000000000000000000000000000000000000000000000000000000000000000000000000000000000000000000 w!
b00000000000000000000000000000000000000000000000000000000000000000000000000000000000000000000000000000000000000000000000000000000000000000000000000000000000000000000000000000000000000000000000000000000000000000000000000000000000000000000000000000000000000000000000000000000000000000000000000000000000000000000000000000000000000000000000000000000000000000000000000000000000000000000000000000000000000000000000000000000000000000000000000000000000000000000000000000000000000000000000000000000000000000000000000000000 )"
b00000000000000000000000000000000000000000000000000000000000000000000000000000000000000000000000000000000000000000000000000000000000000000000000000000000000000000000000000000000000000000000000000000000000000000000000000000000000000000000000000000000000000000000000000000000000000000000000000000000000000000000000000000000000000000000000000000000000000000000000000000000000000000000000000000000000000000000000000000000000000000000000000000000000000000000000000000000000000000000000000000000000000000000000000000000 9"
b00000000000000000000000000000000000000000000000000000000000000000000000000000000000000000000000000000000000000000000000000000000000000000000000000000000000000000000000000000000000000000000000000000000000000000000000000000000000000000000000000000000000000000000000000000000000000000000000000000000000000000000000000000000000000000000000000000000000000000000000000000000000000000000000000000000000000000000000000000000000000000000000000000000000000000000000000000000000000000000000000000000000000000000000000000000 I"
b00000000000000000000000000000000000000000000000000000000000000000000000000000000000000000000000000000000000000000000000000000000000000000000000000000000000000000000000000000000000000000000000000000000000000000000000000000000000000000000000000000000000000000000000000000000000000000000000000000000000000000000000000000000000000000000000000000000000000000000000000000000000000000000000000000000000000000000000000000000000000000000000000000000000000000000000000000000000000000000000000000000000000000000000000000000 Y"
b00000000000000000000000000000000000000000000000000000000000000000000000000000000000000000000000000000000000000000000000000000000000000000000000000000000000000000000000000000000000000000000000000000000000000000000000000000000000000000000000000000000000000000000000000000000000000000000000000000000000000000000000000000000000000000000000000000000000000000000000000000000000000000000000000000000000000000000000000000000000000000000000000000000000000000000000000000000000000000000000000000000000000000000000000000000 i"
b00000000000000000000000000000000000000000000000000000000000000000000000000000000000000000000000000000000000000000000000000000000000000000000000000000000000000000000000000000000000000000000000000000000000000000000000000000000000000000000000000000000000000000000000000000000000000000000000000000000000000000000000000000000000000000000000000000000000000000000000000000000000000000000000000000000000000000000000000000000000000000000000000000000000000000000000000000000000000000000000000000000000000000000000000000000 y"
b00000000000000000000000000000000000000000000000000000000000000000000000000000000000000000000000000000000000000000000000000000000000000000000000000000000000000000000000000000000000000000000000000000000000000000000000000000000000000000000000000000000000000000000000000000000000000000000000000000000000000000000000000000000000000000000000000000000000000000000000000000000000000000000000000000000000000000000000000000000000000000000000000000000000000000000000000000000000000000000000000000000000000000000000000000000 +#
b00000000000000000000000000000000000000000000000000000000000000000000000000000000000000000000000000000000000000000000000000000000000000000000000000000000000000000000000000000000000000000000000000000000000000000000000000000000000000000000000000000000000000000000000000000000000000000000000000000000000000000000000000000000000000000000000000000000000000000000000000000000000000000000000000000000000000000000000000000000000000000000000000000000000000000000000000000000000000000000000000000000000000000000000000000000 ;#
b00000000000000000000000000000000000000000000000000000000000000000000000000000000000000000000000000000000000000000000000000000000000000000000000000000000000000000000000000000000000000000000000000000000000000000000000000000000000000000000000000000000000000000000000000000000000000000000000000000000000000000000000000000000000000000000000000000000000000000000000000000000000000000000000000000000000000000000000000000000000000000000000000000000000000000000000000000000000000000000000000000000000000000000000000000000 K#
b00000000000000000000000000000000000000000000000000000000000000000000000000000000000000000000000000000000000000000000000000000000000000000000000000000000000000000000000000000000000000000000000000000000000000000000000000000000000000000000000000000000000000000000000000000000000000000000000000000000000000000000000000000000000000000000000000000000000000000000000000000000000000000000000000000000000000000000000000000000000000000000000000000000000000000000000000000000000000000000000000000000000000000000000000000000 [#
b00000000000000000000000000000000000000000000000000000000000000000000000000000000000000000000000000000000000000000000000000000000000000000000000000000000000000000000000000000000000000000000000000000000000000000000000000000000000000000000000000000000000000000000000000000000000000000000000000000000000000000000000000000000000000000000000000000000000000000000000000000000000000000000000000000000000000000000000000000000000000000000000000000000000000000000000000000000000000000000000000000000000000000000000000000000 k#
b00000000000000000000000000000000000000000000000000000000000000000000000000000000000000000000000000000000000000000000000000000000000000000000000000000000000000000000000000000000000000000000000000000000000000000000000000000000000000000000000000000000000000000000000000000000000000000000000000000000000000000000000000000000000000000000000000000000000000000000000000000000000000000000000000000000000000000000000000000000000000000000000000000000000000000000000000000000000000000000000000000000000000000000000000000000 {#
b00000000000000000000000000000000000000000000000000000000000000000000000000000000000000000000000000000000000000000000000000000000000000000000000000000000000000000000000000000000000000000000000000000000000000000000000000000000000000000000000000000000000000000000000000000000000000000000000000000000000000000000000000000000000000000000000000000000000000000000000000000000000000000000000000000000000000000000000000000000000000000000000000000000000000000000000000000000000000000000000000000000000000000000000000000000 -$
b00000000000000000000000000000000000000000000000000000000000000000000000000000000000000000000000000000000000000000000000000000000000000000000000000000000000000000000000000000000000000000000000000000000000000000000000000000000000000000000000000000000000000000000000000000000000000000000000000000000000000000000000000000000000000000000000000000000000000000000000000000000000000000000000000000000000000000000000000000000000000000000000000000000000000000000000000000000000000000000000000000000000000000000000000000000 =$
b00000000000000000000000000000000000000000000000000000000000000000000000000000000000000000000000000000000000000000000000000000000000000000000000000000000000000000000000000000000000000000000000000000000000000000000000000000000000000000000000000000000000000000000000000000000000000000000000000000000000000000000000000000000000000000000000000000000000000000000000000000000000000000000000000000000000000000000000000000000000000000000000000000000000000000000000000000000000000000000000000000000000000000000000000000000 M$
b00000000000000000000000000000000000000000000000000000000000000000000000000000000000000000000000000000000000000000000000000000000000000000000000000000000000000000000000000000000000000000000000000000000000000000000000000000000000000000000000000000000000000000000000000000000000000000000000000000000000000000000000000000000000000000000000000000000000000000000000000000000000000000000000000000000000000000000000000000000000000000000000000000000000000000000000000000000000000000000000000000000000000000000000000000000 ]$
b00000000000000000000000000000000000000000000000000000000000000000000000000000000000000000000000000000000000000000000000000000000000000000000000000000000000000000000000000000000000000000000000000000000000000000000000000000000000000000000000000000000000000000000000000000000000000000000000000000000000000000000000000000000000000000000000000000000000000000000000000000000000000000000000000000000000000000000000000000000000000000000000000000000000000000000000000000000000000000000000000000000000000000000000000000000 m$
b00000000000000000000000000000000000000000000000000000000000000000000000000000000000000000000000000000000000000000000000000000000000000000000000000000000000000000000000000000000000000000000000000000000000000000000000000000000000000000000000000000000000000000000000000000000000000000000000000000000000000000000000000000000000000000000000000000000000000000000000000000000000000000000000000000000000000000000000000000000000000000000000000000000000000000000000000000000000000000000000000000000000000000000000000000000 }$
b00000000000000000000000000000000000000000000000000000000000000000000000000000000000000000000000000000000000000000000000000000000000000000000000000000000000000000000000000000000000000000000000000000000000000000000000000000000000000000000000000000000000000000000000000000000000000000000000000000000000000000000000000000000000000000000000000000000000000000000000000000000000000000000000000000000000000000000000000000000000000000000000000000000000000000000000000000000000000000000000000000000000000000000000000000000 /%
b00000000000000000000000000000000000000000000000000000000000000000000000000000000000000000000000000000000000000000000000000000000000000000000000000000000000000000000000000000000000000000000000000000000000000000000000000000000000000000000000000000000000000000000000000000000000000000000000000000000000000000000000000000000000000000000000000000000000000000000000000000000000000000000000000000000000000000000000000000000000000000000000000000000000000000000000000000000000000000000000000000000000000000000000000000000 ?%
b00000000000000000000000000000000000000000000000000000000000000000000000000000000000000000000000000000000000000000000000000000000000000000000000000000000000000000000000000000000000000000000000000000000000000000000000000000000000000000000000000000000000000000000000000000000000000000000000000000000000000000000000000000000000000000000000000000000000000000000000000000000000000000000000000000000000000000000000000000000000000000000000000000000000000000000000000000000000000000000000000000000000000000000000000000000 O%
b00000000000000000000000000000000000000000000000000000000000000000000000000000000000000000000000000000000000000000000000000000000000000000000000000000000000000000000000000000000000000000000000000000000000000000000000000000000000000000000000000000000000000000000000000000000000000000000000000000000000000000000000000000000000000000000000000000000000000000000000000000000000000000000000000000000000000000000000000000000000000000000000000000000000000000000000000000000000000000000000000000000000000000000000000000000 _%
b00000000000000000000000000000000000000000000000000000000000000000000000000000000000000000000000000000000000000000000000000000000000000000000000000000000000000000000000000000000000000000000000000000000000000000000000000000000000000000000000000000000000000000000000000000000000000000000000000000000000000000000000000000000000000000000000000000000000000000000000000000000000000000000000000000000000000000000000000000000000000000000000000000000000000000000000000000000000000000000000000000000000000000000000000000000 o%
b00000000000000000000000000000000000000000000000000000000000000000000000000000000000000000000000000000000000000000000000000000000000000000000000000000000000000000000000000000000000000000000000000000000000000000000000000000000000000000000000000000000000000000000000000000000000000000000000000000000000000000000000000000000000000000000000000000000000000000000000000000000000000000000000000000000000000000000000000000000000000000000000000000000000000000000000000000000000000000000000000000000000000000000000000000000 !&
b00000000000000000000000000000000000000000000000000000000000000000000000000000000000000000000000000000000000000000000000000000000000000000000000000000000000000000000000000000000000000000000000000000000000000000000000000000000000000000000000000000000000000000000000000000000000000000000000000000000000000000000000000000000000000000000000000000000000000000000000000000000000000000000000000000000000000000000000000000000000000000000000000000000000000000000000000000000000000000000000000000000000000000000000000000000 1&
b00000000000000000000000000000000000000000000000000000000000000000000000000000000000000000000000000000000000000000000000000000000000000000000000000000000000000000000000000000000000000000000000000000000000000000000000000000000000000000000000000000000000000000000000000000000000000000000000000000000000000000000000000000000000000000000000000000000000000000000000000000000000000000000000000000000000000000000000000000000000000000000000000000000000000000000000000000000000000000000000000000000000000000000000000000000 A&
1Q&
1R&
1S&
b00000000000000000000000000000000 T&
b00000000000000000000000000001000 U&
b00000000000000000000000000000000000000000000000000000000000000000000000000000000000000000000000000000000000000000000000000000000000000000000000000000000000000000000000000000000000000000000000000000000000000000000000000000000000000000000000000000000000000000000000000000000000000000000000000000000000000000000000000000000000000000000000000000000000000000000000000000000000000000000000000000000000000000000000000000000000000000000000000000000000000000000000000000000000000000000000000000000000000000000000000000000 V&
0f&
0g&
b00000000000000000000001000000000 h&
b00000000000000000000000001000000 i&
b00000000000000010000000000000000 j&
b0000000000000000000000000000000000000000000000000000000000000000 k&
b00000000000000000000000000000000000000000000000000000000000000000000000000000000000000000000000000000000000000000000000000000000000000000000000000000000000000000000000000000000000000000000000000000000000000000000000000000000000000000000000000000000000000000000000000000000000000000000000000000000000000000000000000000000000000000000000000000000000000000000000000000000000000000000000000000000000000000000000000000000000000000000000000000000000000000000000000000000000000000000000000000000000000000000000000000000 m&
b00000000000000000000010000000000 }&
b0000000000000000000000000000000000000000000000000000000000000000000000000000000000000000000100000000000000000000000000000000000000000000000000000000000000000000000000000000000000000000000000000000000000000000000000000000000000000000000000000000000000000000000000000000000000000000000000000000000000000000000000000000000000000000000000000000000000000000000000000000000000000000000000000000000000000000000000000000000000000000000000000000000000000000000000000000000000000000000000000000000000000000000000000000000000000000000000000000000000000000000000000000000000000000000000000000000000000000000000000000000000 ~&
b00000000000000000000000000000000000000000000000000000000000000000000000000000000000000000000000000000000000000000000000000000000000000000000000000000000000000000000000000000000000000000000000000000000000000000000000000000000000000000000000000000000000000000000000000000000000000000000000000000000000000000000000000000000000000000000000000000000000000000000000000000000000000000000000000000000000000000000000000000000000000000000000000000000000000000000000000000000000000000000000000000000000000000000000000000000 4'
0D'
b00000000000000000000000000100000 E'
b00000000000000000000001000000000 F'
#1
0Q&
#2
b00000000000000000000000000100000 s
b00000000000000000000000000000000000000000000000000000000000000000000000000000000000000000000000000000000000000000000000000000000000000000000000000000000000000000000000000000000000000000000000000000000000000000000000000000000000000000000000000000000000000000000000000000001000000000000001000000000000000110000000000000100000000000000010100000000000001100000000000000111000000000000100000000000000010010000000000001010000000000000101100000000000011000000000000001101000000000000111000000000000011110000000000010000 7!
1Q&
#3
0Q&
#4
1Q&
#5
13
05
b000010001 7
b1111111 8
b00010 9
b00001 :
b10001 ;
b00010 <
b00001 =
b00000000000000000000000000000000000000000000000000000000000000000000000000000000000000000000000000000000000000000000000000000000000000000000000000000000000000000000000000000000000000000000000000000000000000000000000000000000000000000000000000000000000000000000000000000001000000000000001000000000000000110000000000000100000000000000010100000000000001100000000000000111000000000000100000000000000010010000000000001010000000000000101100000000000011000000000000001101000000000000111000000000000011110000000000010000 A
0Q&
0R&
0S&
b00000101000100001111000101010111 T&
#6
b000010001 q
b000010001 r
1t
1Q&
b00000000000000000000000000000000000000000000000000000000000000000000000000000000000000000000000000000000000000000000000000000000000000000000000000000000000000000000000000000000000000000000000000000000000000000000000000000000000000000000000000000000000000000000000000000001000000000000001000000000000000110000000000000100000000000000010100000000000001100000000000000111000000000000100000000000000010010000000000001010000000000000101100000000000011000000000000001101000000000000111000000000000011110000000000010000 V&
1f&
1g&
#7
0Q&
1S&
#8
03
b10 6
b0000000 8
b00010 :
b00001 ;
b00010 =
1>
b00000000000000000000000000000000000000000000000000000000000000000000000000000000000000000000000000000000000000000000000000000000000000000000000000000000000000000000000000000000000000000000000000000000000000000000000000000000000000000000000000000000000000000000000000000001000000000000001000000000000000110000000000000100000000000000010100000000000001100000000000000111000000000000100000000000000010010000000000001010000000000000101100000000000011000000000000001101000000000000111000000000000011110000000000010000 Q
b00000000000000000000000000000000000000000000000000000000000000000000000000000000000000000000000000000000000000000000000000000000000000000000000000000000000000000000000000000000000000000000000000000000000000000000000000000000000000000000000000000000000000000000000000000001000000000000001000000000000000110000000000000100000000000000010100000000000001100000000000000111000000000000100000000000000010010000000000001010000000000000101100000000000011000000000000001101000000000000111000000000000011110000000000010000 a
b00000000000000000000000000000000000000000000000000000000000000000000000000000000000000000000000000000000000000000000000000000000000000000000000000000000000000000000000000000000000000000000000000000000000000000000000000000000000000000000000000000000000000000000000000000001000000000000001000000000000000110000000000000100000000000000010100000000000001100000000000000111000000000000100000000000000010010000000000001010000000000000101100000000000011000000000000001101000000000000111000000000000011110000000000010000 G!
1Q&
0S&
b00000010000100010011000101010111 T&
b00000000000000000000000000000000000000000000000000000000000000000000000000000000000000000000000000000000000000000000000000000000000000000000000000000000000000000000000000000000000000000000000000000000000000000000000000000000000000000000000000000000000000000000000000000001000000000000010000000000000000110000000000000110000000000000010100000000000010000000000000000111000000000000101000000000000010010000000000001100000000000000101100000000000011100000000000001101000000000001000000000000000011110000000000010010 V&
#9
0Q&
#10
b00000000000000000000000000000000000000000000000000000000000000000000000000000000000000000000000000000000000000000000000000000000000000000000000000000000000000000000000000000000000000000000000000000000000000000000000000000000000000000000000000000000000000000000000000000001000000000000010000000000000000110000000000000110000000000000010100000000000010000000000000000111000000000000101000000000000010010000000000001100000000000000101100000000000011100000000000001101000000000001000000000000000011110000000000010010 A
b00000000000000000000000000000000000000000000000000000000000000000000000000000000000000000000000000000000000000000000000000000000000000000000000000000000000000000000000000000000000000000000000000000000000000000000000000000000000000000000000000000000000000000000000000000001000000000000010000000000000000110000000000000110000000000000010100000000000010000000000000000111000000000000101000000000000010010000000000001100000000000000101100000000000011100000000000001101000000000001000000000000000011110000000000010010 a
b00000000000000000000000000000000000000000000000000000000000000000000000000000000000000000000000000000000000000000000000000000000000000000000000000000000000000000000000000000000000000000000000000000000000000000000000000000000000000000000000000000000000000000000000000000001000000000000010000000000000000110000000000000110000000000000010100000000000010000000000000000111000000000000101000000000000010010000000000001100000000000000101100000000000011100000000000001101000000000001000000000000000011110000000000010010 G!
1Q&
#11
0Q&
#12
1Q&
#13
0Q&
1S&
#14
b00 6
b1111111 8
b00100 :
b00000 ;
b00100 =
1@
b00000000000000000000000000000000000000000000000000000000000000000000000000000000000000000000000000000000000000000000000000000000000000000000000000000000000000000000000000000000000000000000000000000000000000000000000000000000000000000000000000000000000000000000000000000000000000000000000000000000000000000000000000000000000000000000000000000000000000000000000000000000000000000000000000000000000000000000000000000000000000000000000000000000000000000000000000000000000000000000000000000000000000000000000000000000 A
b00000000000000000000000000000000000000000000000000000000000000000000000000000000000000000000000000000000000000000000000000000000000000000000000000000000000000000000000000000000000000000000000000000000000000000000000000000000000000000000000000000000000000000000000000000000000000000000000000000000000000000000000000000000000000000000000000000000000000000000000000000000000000000000000000000000000000000000000000000000000000000000000000000000000000000000000000000000000000000000000000000000000000000000000000000000 Q
1Q&
0S&
b01000010000000100101000100100111 T&
b00000000000000000000000000000000000000000000000000000000000000000000000000000000000000000000000000000000000000000000000000000000000000000000000000000000000000000000000000000000000000000000000000000000000000000000000000000000000000000000000000000000000000000000000000000000000000000000000000000000000000000000000000000000000000000000000000000000000000000000000000000000000000000000000000000000000000000000000000000000000000000000000000000000000000000000000000000000000000000000000000000000000000000000000000000000 V&
0g&
#15
0Q&
1S&
#16
b00000 9
b00000 <
1?
0@
b00000000000000000000000000000000000000000000000000000000000000000000000000000000000000000000000000000000000000000000000000000000000000000000000000000000000000000000000000000000000000000000000000000000000000000000000000000000000000000000000000000000000000000000000000000000000000000000000000000000000000000000000000000000000000000000000000000000000000000000000000000000000000000000000000000000000000000000000000000000000000000000000000000000000000000000000000000000000000000000000000000000000000000000000000000000 a
b00000000000000000000000000000000000000000000000000000000000000000000000000000000000000000000000000000000000000000000000000000000000000000000000000000000000000000000000000000000000000000000000000000000000000000000000000000000000000000000000000000000000000000000000000000001000000000000010000000000000000110000000000000110000000000000010100000000000010000000000000000111000000000000101000000000000010010000000000001100000000000000101100000000000011100000000000001101000000000001000000000000000011110000000000010010 u
1Q&
0S&
b01000010000000100000000000000111 T&
1g&
